Willa’s Portfolio - TidyTuesdayYarn
…
Show the code

#ggsave(filename = "./gallery_2022/2022_week-41_ravelry-yarn.png",
#       plot = p1, bg = "#07152A",
#       width = 8.5, height = 8.5, units = "in")

df <- yarn %>%
  select(yarn_company_name, rating_average, rating_count,yarn_weight_name) %>%
  tidyr::drop_na()
df

# A tibble: 87,218 × 4
   yarn_company_name rating_average rating_count yarn_weight_name
   <chr>                      <dbl>        <dbl> <chr>           
 1 Red Heart                   3.58        17616 Aran            
 2 Caron                       4.03        19133 Aran            
 3 Cascade Yarns ®             4.48        21517 Worsted         
 4 Lion Brand                  3.87        13959 Aran            
 5 Malabrigo Yarn              4.73        20638 Aran            
 6 Malabrigo Yarn              4.81        20250 Worsted         
 7 Lily                        4.11        13053 Worsted         
 8 Cascade Yarns ®             4.42        14828 Worsted         
 9 Malabrigo Yarn              4.74        18508 Light Fingering 
10 madelinetosh                4.7         15991 Fingering       
# … with 87,208 more rows
…
